﻿@startuml
interface IDamageable{
ApplyDamage()
Destroy()
Heal()
}

Player --> IDamageable
Enemy --> IDamageable
Box --> IDamageable

class Box{
doesn't need Heal()
}

@enduml

@startuml


interface IDamageable{

ApplyDamage()
Destroy()
}

Enemy --> IDamageable
Enemy --> IHealable
Box --> IDamageable

interface IHealable{
Heal()
}

class Box{

}

@enduml